{
  "_id": "5f65be36a3fe7a0017609a0f",
  "firstName": "Andrey",
  "lastName": "Vlasov",
  "patronymicName": "Unknown",
  "citizenship": "Russia",
  "gender": "Male",
  "birthDate": "17.09.1987",
  "position": "ST",
  "overall": 99,
  "pac": 99,
  "sho": 99,
  "pas": 99,
  "dri": 99,
  "def": 99,
  "phy": 99,
  "photoUrl": "https://i.ibb.co/Hqr0Wwf/Andry.png",
  "__v": 0
}
